%YAML 1.1
%TAG !u! tag:unity3d.com,2011:
--- !u!114 &11400000
MonoBehaviour:
  m_ObjectHideFlags: 0
  m_CorrespondingSourceObject: {fileID: 0}
  m_PrefabInstance: {fileID: 0}
  m_PrefabAsset: {fileID: 0}
  m_GameObject: {fileID: 0}
  m_Enabled: 1
  m_EditorHideFlags: 0
  m_Script: {fileID: 11500000, guid: e0f2ed6f4a773074384533bf9c9b530c, type: 3}
  m_Name: 4006
  m_EditorClassIdentifier: 
  _dataId: 4006
  _reserveCount: 1
  _illustAsset:
    m_AssetGUID: 
    m_SubObjectName: 
    m_SubObjectType: 
  _previewIllustSpriteAsset:
    m_AssetGUID: c8000485925ac8b45ac277642f4f8179
    m_SubObjectName: 
    m_SubObjectType: 
