%YAML 1.1
%TAG !u! tag:unity3d.com,2011:
--- !u!114 &11400000
MonoBehaviour:
  m_ObjectHideFlags: 0
  m_CorrespondingSourceObject: {fileID: 0}
  m_PrefabInstance: {fileID: 0}
  m_PrefabAsset: {fileID: 0}
  m_GameObject: {fileID: 0}
  m_Enabled: 1
  m_EditorHideFlags: 0
  m_Script: {fileID: 11500000, guid: bfff0e6343cbd3249be787f05f5f34c5, type: 3}
  m_Name: 2006SkillTimer
  m_EditorClassIdentifier: 
  _skillFrames:
  - id: 0
  references:
    version: 1
    00000000:
      type: {class: TimmerSkillAction, ns: , asm: Assembly-CSharp}
      data:
        _waitTime: 0
        _lifeTime:
          _defaultStat: -1
          _levelCoeff:
            _coeffType: 0
            _statCoeff: 0
          _upgradeCoeff:
            _coeffType: 0
            _statCoeff: 0
          _mergeCoeff:
            _coeffType: 0
            _statCoeff: 0
        _cycleTime:
          _defaultStat: 7
          _levelCoeff:
            _coeffType: 0
            _statCoeff: 0
          _upgradeCoeff:
            _coeffType: 0
            _statCoeff: -0.25
          _mergeCoeff:
            _coeffType: 0
            _statCoeff: -0.5
        _skill: {fileID: 11400000, guid: 166d6ae009c1dce4ebce95b9e41e161a, type: 2}
        _targetType: 2
