%YAML 1.1
%TAG !u! tag:unity3d.com,2011:
--- !u!114 &11400000
MonoBehaviour:
  m_ObjectHideFlags: 0
  m_CorrespondingSourceObject: {fileID: 0}
  m_PrefabInstance: {fileID: 0}
  m_PrefabAsset: {fileID: 0}
  m_GameObject: {fileID: 0}
  m_Enabled: 1
  m_EditorHideFlags: 0
  m_Script: {fileID: 11500000, guid: 0d4bd6a729733d649a9130e14147f9b6, type: 3}
  m_Name: 1005Electric
  m_EditorClassIdentifier: 
  _buffType: 4
  _applyType: 1
  _effectData: {fileID: 11400000, guid: a35a383243ba8ed468a3d635641cc73d, type: 2}
  _isFixedOrder: 0
  _buffTag: -1
  _count:
    _defaultStat: 10
    _levelCoeff:
      _coeffType: 0
      _statCoeff: 0
    _upgradeCoeff:
      _coeffType: 0
      _statCoeff: 0
    _mergeCoeff:
      _coeffType: 0
      _statCoeff: 0
  _power:
    _defaultStat: 40
    _levelCoeff:
      _coeffType: 0
      _statCoeff: 10
    _upgradeCoeff:
      _coeffType: 0
      _statCoeff: 20
    _mergeCoeff:
      _coeffType: 1
      _statCoeff: 0
  _hitEffectData: {fileID: 11400000, guid: bf61c510aede9794181145b6bcff1b72, type: 2}
