%YAML 1.1
%TAG !u! tag:unity3d.com,2011:
--- !u!114 &11400000
MonoBehaviour:
  m_ObjectHideFlags: 0
  m_CorrespondingSourceObject: {fileID: 0}
  m_PrefabInstance: {fileID: 0}
  m_PrefabAsset: {fileID: 0}
  m_GameObject: {fileID: 0}
  m_Enabled: 1
  m_EditorHideFlags: 0
  m_Script: {fileID: 11500000, guid: bfff0e6343cbd3249be787f05f5f34c5, type: 3}
  m_Name: 2009Skill
  m_EditorClassIdentifier: 
  _skillFrames:
  - id: 0
  - id: 1
  - id: 2
  - id: 3
  references:
    version: 1
    00000000:
      type: {class: LookAtTarget, ns: , asm: Assembly-CSharp}
      data:
        _waitTime: 0
    00000001:
      type: {class: PercentageAction, ns: , asm: Assembly-CSharp}
      data:
        _waitTime: 0
        _percent:
          _defaultStat: 0.5
          _levelCoeff:
            _coeffType: 0
            _statCoeff: 0.01
          _upgradeCoeff:
            _coeffType: 0
            _statCoeff: 0
          _mergeCoeff:
            _coeffType: 0
            _statCoeff: 0.05
        _successSkill: {fileID: 11400000, guid: cdf69c2f5524f6940b52fb3d420a7fb9,
          type: 2}
        _failSkill: {fileID: 0}
    00000002:
      type: {class: DamageOfType, ns: , asm: Assembly-CSharp}
      data:
        _waitTime: 0
        _type: 1
        _damage:
          _defaultStat: 2.5
          _levelCoeff:
            _coeffType: 0
            _statCoeff: 0
          _upgradeCoeff:
            _coeffType: 0
            _statCoeff: 0.25
          _mergeCoeff:
            _coeffType: 1
            _statCoeff: 0
    00000003:
      type: {class: WaitAction, ns: , asm: Assembly-CSharp}
      data:
        _waitTime: 0
        _skillEffect:
          _effectData: {fileID: 11400000, guid: 086123e5c83554344a0772017ad88592,
            type: 2}
          _producePosition: 5
          _sortType: 1
          _sortingOrder: 0
