%YAML 1.1
%TAG !u! tag:unity3d.com,2011:
--- !u!114 &11400000
MonoBehaviour:
  m_ObjectHideFlags: 0
  m_CorrespondingSourceObject: {fileID: 0}
  m_PrefabInstance: {fileID: 0}
  m_PrefabAsset: {fileID: 0}
  m_GameObject: {fileID: 0}
  m_Enabled: 1
  m_EditorHideFlags: 0
  m_Script: {fileID: 11500000, guid: f2fc79f8442210e409e144662472ddd1, type: 3}
  m_Name: Debuff(Frozen)
  m_EditorClassIdentifier: 
  _buffType: 5
  _applyType: 1
  _effectData: {fileID: 11400000, guid: e84f06bf663149f419b7f17c0884fdbd, type: 2}
  _isFixedOrder: 0
  _buffTag: -1
  _lifeTime:
    _defaultStat: 2
    _levelCoeff: 0
    _reinforceCoeff: 0.1
    _stepCoeff: 0.05
  _power:
    _defaultStat: 2.2
    _levelCoeff: 0
    _reinforceCoeff: 0.1
    _stepCoeff: 0
