%YAML 1.1
%TAG !u! tag:unity3d.com,2011:
--- !u!114 &11400000
MonoBehaviour:
  m_ObjectHideFlags: 0
  m_CorrespondingSourceObject: {fileID: 0}
  m_PrefabInstance: {fileID: 0}
  m_PrefabAsset: {fileID: 0}
  m_GameObject: {fileID: 0}
  m_Enabled: 1
  m_EditorHideFlags: 0
  m_Script: {fileID: 11500000, guid: 0d4bd6a729733d649a9130e14147f9b6, type: 3}
  m_Name: Debuff(Electrick)
  m_EditorClassIdentifier: 
  _buffType: 5
  _applyType: 1
  _effectData: {fileID: 11400000, guid: a35a383243ba8ed468a3d635641cc73d, type: 2}
  _buffTag: -1
  _count:
    _defaultStat: 10
    _levelCoeff: 0
    _reinforceCoeff: 0
    _stepCoeff: 0
  _power:
    _defaultStat: 5
    _levelCoeff: 0
    _reinforceCoeff: 0
    _stepCoeff: 0
  _hitEffectData: {fileID: 11400000, guid: bf61c510aede9794181145b6bcff1b72, type: 2}
