%YAML 1.1
%TAG !u! tag:unity3d.com,2011:
--- !u!114 &11400000
MonoBehaviour:
  m_ObjectHideFlags: 0
  m_CorrespondingSourceObject: {fileID: 0}
  m_PrefabInstance: {fileID: 0}
  m_PrefabAsset: {fileID: 0}
  m_GameObject: {fileID: 0}
  m_Enabled: 1
  m_EditorHideFlags: 0
  m_Script: {fileID: 11500000, guid: 0aecd65ef5bc3cf4291173584181e66b, type: 3}
  m_Name: 9002SpreegunMon
  m_EditorClassIdentifier: 
  _dataId: 9002
  _skinId: 9002
  _skillTriggerData:
    reorderableList:
      canAdd: 1
      canRemove: 1
      draggable: 1
      expandable: 1
      multipleSelection: 1
      isExpanded: 1
      label:
        m_Text: Keys
        m_Image: {fileID: 0}
        m_Tooltip: 
      headerHeight: 18
      footerHeight: 13
      slideEasing: 0.15
      verticalSpacing: 2
      showDefaultBackground: 1
      elementDisplayType: 0
      elementNameProperty: 
      elementNameOverride: 
      elementIcon: {fileID: 0}
    reqReferences: {fileID: 0}
    isExpanded: 1
    _keyValues: 0000000002000000
    _keys: 0000000002000000
    _values:
    - _targetType: 1
      _triggerSlots:
      - {fileID: 11400000, guid: c96d6fe17c19ec14fb80174cf577a0a7, type: 2}
    - _targetType: 1
      _triggerSlots:
      - {fileID: 11400000, guid: 83eb08d6cc6903346bb68962a95a8b59, type: 2}
  _previewImage: {fileID: 21300000, guid: 12d9efc0ff5a70945b42b014f10ac5ea, type: 3}
  _isBossMonster: 1
  _immune:
    _death: 1
