%YAML 1.1
%TAG !u! tag:unity3d.com,2011:
--- !u!114 &11400000
MonoBehaviour:
  m_ObjectHideFlags: 0
  m_CorrespondingSourceObject: {fileID: 0}
  m_PrefabInstance: {fileID: 0}
  m_PrefabAsset: {fileID: 0}
  m_GameObject: {fileID: 0}
  m_Enabled: 1
  m_EditorHideFlags: 0
  m_Script: {fileID: 11500000, guid: 0aecd65ef5bc3cf4291173584181e66b, type: 3}
  m_Name: 9003SlimeKingMon
  m_EditorClassIdentifier: 
  _dataId: 9003
  _skinId: 9003
  _skillTriggerData:
    reorderableList:
      canAdd: 1
      canRemove: 1
      draggable: 1
      expandable: 1
      multipleSelection: 1
      isExpanded: 1
      label:
        m_Text: Keys
        m_Image: {fileID: 0}
        m_Tooltip: 
      headerHeight: 18
      footerHeight: 13
      slideEasing: 0.15
      verticalSpacing: 2
      showDefaultBackground: 1
      elementDisplayType: 0
      elementNameProperty: 
      elementNameOverride: 
      elementIcon: {fileID: 0}
    reqReferences: {fileID: 0}
    isExpanded: 1
    _keyValues: 00000000
    _keys: 00000000
    _values:
    - _targetType: 1
      _triggerSlots:
      - {fileID: 11400000, guid: e5a7441b5899e7d429fdfbac3136c467, type: 2}
  _previewImage: {fileID: 21300000, guid: 1a8dcfab046475049b8c2b9100ba7cf4, type: 3}
  _isBossMonster: 1
  _immune:
    _death: 1
