%YAML 1.1
%TAG !u! tag:unity3d.com,2011:
--- !u!114 &11400000
MonoBehaviour:
  m_ObjectHideFlags: 0
  m_CorrespondingSourceObject: {fileID: 0}
  m_PrefabInstance: {fileID: 0}
  m_PrefabAsset: {fileID: 0}
  m_GameObject: {fileID: 0}
  m_Enabled: 1
  m_EditorHideFlags: 0
  m_Script: {fileID: 11500000, guid: 8b68b5cc95376c14ea16097dd63cc929, type: 3}
  m_Name: Eff4010AttackBullet
  m_EditorClassIdentifier: 
  _dataId: 165
  _gameEffect: {fileID: 3156497950842276523, guid: 955f9505bdc18ae4ead1be39c0095749,
    type: 3}
  _isStatic: 0
