%YAML 1.1
%TAG !u! tag:unity3d.com,2011:
--- !u!114 &11400000
MonoBehaviour:
  m_ObjectHideFlags: 0
  m_CorrespondingSourceObject: {fileID: 0}
  m_PrefabInstance: {fileID: 0}
  m_PrefabAsset: {fileID: 0}
  m_GameObject: {fileID: 0}
  m_Enabled: 1
  m_EditorHideFlags: 0
  m_Script: {fileID: 11500000, guid: 8b68b5cc95376c14ea16097dd63cc929, type: 3}
  m_Name: Eff5015Skill
  m_EditorClassIdentifier: 
  _dataId: 98
  _gameEffect: {fileID: -7806468422477559099, guid: 4ed81d790e548e643b30e8e694af6650,
    type: 3}
  _isStatic: 0
