%YAML 1.1
%TAG !u! tag:unity3d.com,2011:
--- !u!114 &11400000
MonoBehaviour:
  m_ObjectHideFlags: 0
  m_CorrespondingSourceObject: {fileID: 0}
  m_PrefabInstance: {fileID: 0}
  m_PrefabAsset: {fileID: 0}
  m_GameObject: {fileID: 0}
  m_Enabled: 1
  m_EditorHideFlags: 0
  m_Script: {fileID: 11500000, guid: 8b68b5cc95376c14ea16097dd63cc929, type: 3}
  m_Name: EffSpawn
  m_EditorClassIdentifier: 
  _dataId: 203
  _gameEffect: {fileID: 3374023019975453114, guid: 490ebfe4544cf594bb0a4cf4ac7e1d94,
    type: 3}
  _isStatic: 0
