%YAML 1.1
%TAG !u! tag:unity3d.com,2011:
--- !u!1 &4888405805174290128
GameObject:
  m_ObjectHideFlags: 0
  m_CorrespondingSourceObject: {fileID: 0}
  m_PrefabInstance: {fileID: 0}
  m_PrefabAsset: {fileID: 0}
  serializedVersion: 6
  m_Component:
  - component: {fileID: 4888405805174290130}
  - component: {fileID: 4888405805174290129}
  m_Layer: 0
  m_Name: LifeTileHitEnemy
  m_TagString: Untagged
  m_Icon: {fileID: 0}
  m_NavMeshLayer: 0
  m_StaticEditorFlags: 0
  m_IsActive: 1
--- !u!4 &4888405805174290130
Transform:
  m_ObjectHideFlags: 0
  m_CorrespondingSourceObject: {fileID: 0}
  m_PrefabInstance: {fileID: 0}
  m_PrefabAsset: {fileID: 0}
  m_GameObject: {fileID: 4888405805174290128}
  m_LocalRotation: {x: 0, y: 0, z: 0, w: 1}
  m_LocalPosition: {x: 307.2, y: 0, z: 0}
  m_LocalScale: {x: 10, y: 10, z: 10}
  m_Children:
  - {fileID: 4888405805717090324}
  - {fileID: 4888405805776121714}
  m_Father: {fileID: 0}
  m_RootOrder: 0
  m_LocalEulerAnglesHint: {x: 0, y: 0, z: 0}
--- !u!95 &4888405805174290129
Animator:
  serializedVersion: 3
  m_ObjectHideFlags: 0
  m_CorrespondingSourceObject: {fileID: 0}
  m_PrefabInstance: {fileID: 0}
  m_PrefabAsset: {fileID: 0}
  m_GameObject: {fileID: 4888405805174290128}
  m_Enabled: 1
  m_Avatar: {fileID: 0}
  m_Controller: {fileID: 9100000, guid: d8d96db80f5ad954786d67c05e41ac7c, type: 2}
  m_CullingMode: 0
  m_UpdateMode: 0
  m_ApplyRootMotion: 0
  m_LinearVelocityBlending: 0
  m_WarningMessage: 
  m_HasTransformHierarchy: 1
  m_AllowConstantClipSamplingOptimization: 1
  m_KeepAnimatorControllerStateOnDisable: 0
--- !u!1 &4888405805717090323
GameObject:
  m_ObjectHideFlags: 0
  m_CorrespondingSourceObject: {fileID: 0}
  m_PrefabInstance: {fileID: 0}
  m_PrefabAsset: {fileID: 0}
  serializedVersion: 6
  m_Component:
  - component: {fileID: 4888405805717090324}
  m_Layer: 0
  m_Name: Life
  m_TagString: Untagged
  m_Icon: {fileID: 0}
  m_NavMeshLayer: 0
  m_StaticEditorFlags: 0
  m_IsActive: 1
--- !u!4 &4888405805717090324
Transform:
  m_ObjectHideFlags: 0
  m_CorrespondingSourceObject: {fileID: 0}
  m_PrefabInstance: {fileID: 0}
  m_PrefabAsset: {fileID: 0}
  m_GameObject: {fileID: 4888405805717090323}
  m_LocalRotation: {x: 0, y: 0, z: 0, w: 1}
  m_LocalPosition: {x: 0, y: 2, z: 0}
  m_LocalScale: {x: 5, y: 5, z: 5}
  m_Children:
  - {fileID: 4100581892797570773}
  m_Father: {fileID: 4888405805174290130}
  m_RootOrder: 0
  m_LocalEulerAnglesHint: {x: 0, y: 0, z: 0}
--- !u!1 &4888405805776121713
GameObject:
  m_ObjectHideFlags: 0
  m_CorrespondingSourceObject: {fileID: 0}
  m_PrefabInstance: {fileID: 0}
  m_PrefabAsset: {fileID: 0}
  serializedVersion: 6
  m_Component:
  - component: {fileID: 4888405805776121714}
  - component: {fileID: 4888405805776121715}
  m_Layer: 0
  m_Name: LifeShadow
  m_TagString: Untagged
  m_Icon: {fileID: 0}
  m_NavMeshLayer: 0
  m_StaticEditorFlags: 0
  m_IsActive: 1
--- !u!4 &4888405805776121714
Transform:
  m_ObjectHideFlags: 0
  m_CorrespondingSourceObject: {fileID: 0}
  m_PrefabInstance: {fileID: 0}
  m_PrefabAsset: {fileID: 0}
  m_GameObject: {fileID: 4888405805776121713}
  m_LocalRotation: {x: -0, y: -0, z: -0, w: 1}
  m_LocalPosition: {x: 0, y: -3.39, z: 0}
  m_LocalScale: {x: 5, y: 5, z: 5}
  m_Children: []
  m_Father: {fileID: 4888405805174290130}
  m_RootOrder: 1
  m_LocalEulerAnglesHint: {x: 0, y: 0, z: 0}
--- !u!212 &4888405805776121715
SpriteRenderer:
  m_ObjectHideFlags: 0
  m_CorrespondingSourceObject: {fileID: 0}
  m_PrefabInstance: {fileID: 0}
  m_PrefabAsset: {fileID: 0}
  m_GameObject: {fileID: 4888405805776121713}
  m_Enabled: 1
  m_CastShadows: 0
  m_ReceiveShadows: 0
  m_DynamicOccludee: 1
  m_MotionVectors: 1
  m_LightProbeUsage: 1
  m_ReflectionProbeUsage: 1
  m_RayTracingMode: 0
  m_RenderingLayerMask: 1
  m_RendererPriority: 0
  m_Materials:
  - {fileID: 10754, guid: 0000000000000000f000000000000000, type: 0}
  m_StaticBatchInfo:
    firstSubMesh: 0
    subMeshCount: 0
  m_StaticBatchRoot: {fileID: 0}
  m_ProbeAnchor: {fileID: 0}
  m_LightProbeVolumeOverride: {fileID: 0}
  m_ScaleInLightmap: 1
  m_ReceiveGI: 1
  m_PreserveUVs: 0
  m_IgnoreNormalsForChartDetection: 0
  m_ImportantGI: 0
  m_StitchLightmapSeams: 1
  m_SelectedEditorRenderState: 0
  m_MinimumChartSize: 4
  m_AutoUVMaxDistance: 0.5
  m_AutoUVMaxAngle: 89
  m_LightmapParameters: {fileID: 0}
  m_SortingLayerID: 0
  m_SortingLayer: 0
  m_SortingOrder: 0
  m_Sprite: {fileID: 21300000, guid: 2cf931128b2b0424088255c9ff8c49c5, type: 3}
  m_Color: {r: 1, g: 1, b: 1, a: 1}
  m_FlipX: 0
  m_FlipY: 0
  m_DrawMode: 0
  m_Size: {x: 0.61, y: 0.34}
  m_AdaptiveModeThreshold: 0.5
  m_SpriteTileMode: 0
  m_WasSpriteAssigned: 1
  m_MaskInteraction: 0
  m_SpriteSortPoint: 0
--- !u!1 &9176378856943550658
GameObject:
  m_ObjectHideFlags: 0
  m_CorrespondingSourceObject: {fileID: 0}
  m_PrefabInstance: {fileID: 0}
  m_PrefabAsset: {fileID: 0}
  serializedVersion: 6
  m_Component:
  - component: {fileID: 9176378856943550657}
  m_Layer: 0
  m_Name: EffDummy
  m_TagString: Untagged
  m_Icon: {fileID: 0}
  m_NavMeshLayer: 0
  m_StaticEditorFlags: 0
  m_IsActive: 1
--- !u!4 &9176378856943550657
Transform:
  m_ObjectHideFlags: 0
  m_CorrespondingSourceObject: {fileID: 0}
  m_PrefabInstance: {fileID: 0}
  m_PrefabAsset: {fileID: 0}
  m_GameObject: {fileID: 9176378856943550658}
  m_LocalRotation: {x: 0, y: 0, z: 0, w: 1}
  m_LocalPosition: {x: -0.003, y: 0.361, z: 0}
  m_LocalScale: {x: 1, y: 1, z: 1}
  m_Children: []
  m_Father: {fileID: 4100581892797570773}
  m_RootOrder: 2
  m_LocalEulerAnglesHint: {x: 0, y: 0, z: 0}
--- !u!1001 &4888405806017805912
PrefabInstance:
  m_ObjectHideFlags: 0
  serializedVersion: 2
  m_Modification:
    m_TransformParent: {fileID: 4888405805717090324}
    m_Modifications:
    - target: {fileID: -8399539693655791829, guid: 3d9b06a9ce7ade042b208b5bdf82e40e,
        type: 3}
      propertyPath: m_LocalPosition.x
      value: 0.5293341
      objectReference: {fileID: 0}
    - target: {fileID: -8399539693655791829, guid: 3d9b06a9ce7ade042b208b5bdf82e40e,
        type: 3}
      propertyPath: m_LocalPosition.y
      value: 0.0015730029
      objectReference: {fileID: 0}
    - target: {fileID: -8399539693655791829, guid: 3d9b06a9ce7ade042b208b5bdf82e40e,
        type: 3}
      propertyPath: m_LocalScale.y
      value: 0.99999976
      objectReference: {fileID: 0}
    - target: {fileID: -8399539693655791829, guid: 3d9b06a9ce7ade042b208b5bdf82e40e,
        type: 3}
      propertyPath: m_LocalScale.x
      value: 0.9999998
      objectReference: {fileID: 0}
    - target: {fileID: -5931412644899547904, guid: 3d9b06a9ce7ade042b208b5bdf82e40e,
        type: 3}
      propertyPath: m_Name
      value: Life02
      objectReference: {fileID: 0}
    - target: {fileID: -5931412644899547904, guid: 3d9b06a9ce7ade042b208b5bdf82e40e,
        type: 3}
      propertyPath: m_IsActive
      value: 1
      objectReference: {fileID: 0}
    - target: {fileID: 320289769152831436, guid: 3d9b06a9ce7ade042b208b5bdf82e40e,
        type: 3}
      propertyPath: m_Bounds.m_Center.x
      value: 0
      objectReference: {fileID: 0}
    - target: {fileID: 320289769152831436, guid: 3d9b06a9ce7ade042b208b5bdf82e40e,
        type: 3}
      propertyPath: m_Bounds.m_Center.y
      value: 0.00000014901161
      objectReference: {fileID: 0}
    - target: {fileID: 320289769152831436, guid: 3d9b06a9ce7ade042b208b5bdf82e40e,
        type: 3}
      propertyPath: m_Bounds.m_Extent.x
      value: 0.30500007
      objectReference: {fileID: 0}
    - target: {fileID: 320289769152831436, guid: 3d9b06a9ce7ade042b208b5bdf82e40e,
        type: 3}
      propertyPath: m_Bounds.m_Extent.y
      value: 0.35500002
      objectReference: {fileID: 0}
    - target: {fileID: 371581066589637751, guid: 3d9b06a9ce7ade042b208b5bdf82e40e,
        type: 3}
      propertyPath: m_LocalPosition.y
      value: 0.14932252
      objectReference: {fileID: 0}
    - target: {fileID: 371581066589637751, guid: 3d9b06a9ce7ade042b208b5bdf82e40e,
        type: 3}
      propertyPath: m_LocalScale.y
      value: 1
      objectReference: {fileID: 0}
    - target: {fileID: 371581066589637751, guid: 3d9b06a9ce7ade042b208b5bdf82e40e,
        type: 3}
      propertyPath: m_LocalScale.x
      value: 1
      objectReference: {fileID: 0}
    - target: {fileID: 371581066589637751, guid: 3d9b06a9ce7ade042b208b5bdf82e40e,
        type: 3}
      propertyPath: m_LocalScale.z
      value: 1
      objectReference: {fileID: 0}
    - target: {fileID: 3740984319688255672, guid: 3d9b06a9ce7ade042b208b5bdf82e40e,
        type: 3}
      propertyPath: m_Color.r
      value: 1
      objectReference: {fileID: 0}
    - target: {fileID: 3740984319688255672, guid: 3d9b06a9ce7ade042b208b5bdf82e40e,
        type: 3}
      propertyPath: m_Color.g
      value: 1
      objectReference: {fileID: 0}
    - target: {fileID: 3740984319688255672, guid: 3d9b06a9ce7ade042b208b5bdf82e40e,
        type: 3}
      propertyPath: m_Color.b
      value: 1
      objectReference: {fileID: 0}
    - target: {fileID: 8416015734734946775, guid: 3d9b06a9ce7ade042b208b5bdf82e40e,
        type: 3}
      propertyPath: m_LocalPosition.x
      value: 0.215509
      objectReference: {fileID: 0}
    - target: {fileID: 8416015734734946775, guid: 3d9b06a9ce7ade042b208b5bdf82e40e,
        type: 3}
      propertyPath: m_LocalPosition.y
      value: -0.0007865403
      objectReference: {fileID: 0}
    - target: {fileID: 8416015734734946775, guid: 3d9b06a9ce7ade042b208b5bdf82e40e,
        type: 3}
      propertyPath: m_LocalScale.y
      value: 0.99999976
      objectReference: {fileID: 0}
    - target: {fileID: 8416015734734946775, guid: 3d9b06a9ce7ade042b208b5bdf82e40e,
        type: 3}
      propertyPath: m_LocalScale.x
      value: 0.9999998
      objectReference: {fileID: 0}
    - target: {fileID: 8416015734734946775, guid: 3d9b06a9ce7ade042b208b5bdf82e40e,
        type: 3}
      propertyPath: m_LocalScale.z
      value: 1
      objectReference: {fileID: 0}
    - target: {fileID: 8880863922198732941, guid: 3d9b06a9ce7ade042b208b5bdf82e40e,
        type: 3}
      propertyPath: m_LocalPosition.x
      value: 0
      objectReference: {fileID: 0}
    - target: {fileID: 8880863922198732941, guid: 3d9b06a9ce7ade042b208b5bdf82e40e,
        type: 3}
      propertyPath: m_LocalPosition.y
      value: 0
      objectReference: {fileID: 0}
    - target: {fileID: 8880863922198732941, guid: 3d9b06a9ce7ade042b208b5bdf82e40e,
        type: 3}
      propertyPath: m_LocalPosition.z
      value: 0
      objectReference: {fileID: 0}
    - target: {fileID: 8880863922198732941, guid: 3d9b06a9ce7ade042b208b5bdf82e40e,
        type: 3}
      propertyPath: m_LocalRotation.x
      value: 0
      objectReference: {fileID: 0}
    - target: {fileID: 8880863922198732941, guid: 3d9b06a9ce7ade042b208b5bdf82e40e,
        type: 3}
      propertyPath: m_LocalRotation.y
      value: 0
      objectReference: {fileID: 0}
    - target: {fileID: 8880863922198732941, guid: 3d9b06a9ce7ade042b208b5bdf82e40e,
        type: 3}
      propertyPath: m_LocalRotation.z
      value: 0
      objectReference: {fileID: 0}
    - target: {fileID: 8880863922198732941, guid: 3d9b06a9ce7ade042b208b5bdf82e40e,
        type: 3}
      propertyPath: m_LocalRotation.w
      value: 1
      objectReference: {fileID: 0}
    - target: {fileID: 8880863922198732941, guid: 3d9b06a9ce7ade042b208b5bdf82e40e,
        type: 3}
      propertyPath: m_RootOrder
      value: 0
      objectReference: {fileID: 0}
    - target: {fileID: 8880863922198732941, guid: 3d9b06a9ce7ade042b208b5bdf82e40e,
        type: 3}
      propertyPath: m_LocalEulerAnglesHint.x
      value: 0
      objectReference: {fileID: 0}
    - target: {fileID: 8880863922198732941, guid: 3d9b06a9ce7ade042b208b5bdf82e40e,
        type: 3}
      propertyPath: m_LocalEulerAnglesHint.y
      value: 0
      objectReference: {fileID: 0}
    - target: {fileID: 8880863922198732941, guid: 3d9b06a9ce7ade042b208b5bdf82e40e,
        type: 3}
      propertyPath: m_LocalEulerAnglesHint.z
      value: 0
      objectReference: {fileID: 0}
    m_RemovedComponents: []
  m_SourcePrefab: {fileID: 658996214325210659, guid: 3d9b06a9ce7ade042b208b5bdf82e40e,
    type: 3}
--- !u!4 &4100581892797570773 stripped
Transform:
  m_CorrespondingSourceObject: {fileID: 8880863922198732941, guid: 3d9b06a9ce7ade042b208b5bdf82e40e,
    type: 3}
  m_PrefabInstance: {fileID: 4888405806017805912}
  m_PrefabAsset: {fileID: 0}
