%YAML 1.1
%TAG !u! tag:unity3d.com,2011:
--- !u!114 &11400000
MonoBehaviour:
  m_ObjectHideFlags: 0
  m_CorrespondingSourceObject: {fileID: 0}
  m_PrefabInstance: {fileID: 0}
  m_PrefabAsset: {fileID: 0}
  m_GameObject: {fileID: 0}
  m_Enabled: 1
  m_EditorHideFlags: 0
  m_Script: {fileID: 11500000, guid: bfff0e6343cbd3249be787f05f5f34c5, type: 3}
  m_Name: 5014Others
  m_EditorClassIdentifier: 
  _skillFrames:
  - id: 0
  - id: 1
  - id: 2
  references:
    version: 1
    00000000:
      type: {class: LookAtTarget, ns: , asm: Assembly-CSharp}
      data:
        _waitTime: 0
    00000001:
      type: {class: DamageAction, ns: , asm: Assembly-CSharp}
      data:
        _waitTime: 0
        _critical: {fileID: 0}
    00000002:
      type: {class: WaitAction, ns: , asm: Assembly-CSharp}
      data:
        _waitTime: 0
        _skillEffect:
          _effectData: {fileID: 11400000, guid: d53139aa8b059d54491bf38fc4eda958,
            type: 2}
          _producePosition: 5
          _sortType: 1
          _sortingOrder: 0
