%YAML 1.1
%TAG !u! tag:unity3d.com,2011:
--- !u!114 &11400000
MonoBehaviour:
  m_ObjectHideFlags: 0
  m_CorrespondingSourceObject: {fileID: 0}
  m_PrefabInstance: {fileID: 0}
  m_PrefabAsset: {fileID: 0}
  m_GameObject: {fileID: 0}
  m_Enabled: 1
  m_EditorHideFlags: 0
  m_Script: {fileID: 11500000, guid: 1fe8c40463f15c64db8e228ddef5a30a, type: 3}
  m_Name: FlagKnightBuff
  m_EditorClassIdentifier: 
  _buffType: 12
  _lifeTime: 1
  _effectData: {fileID: 0}
  _addCriticalPercent: 0.4
  _effectData: {fileID: 0}
