%YAML 1.1
%TAG !u! tag:unity3d.com,2011:
--- !u!114 &11400000
MonoBehaviour:
  m_ObjectHideFlags: 0
  m_CorrespondingSourceObject: {fileID: 0}
  m_PrefabInstance: {fileID: 0}
  m_PrefabAsset: {fileID: 0}
  m_GameObject: {fileID: 0}
  m_Enabled: 1
  m_EditorHideFlags: 0
  m_Script: {fileID: 11500000, guid: 21c8238f6699aa44aa761c522d1447fb, type: 3}
  m_Name: 2002ElfArcher
  m_EditorClassIdentifier: 
  _dataId: 2002
  _skinId: 2002
  _skillTriggerData:
    reorderableList:
      canAdd: 1
      canRemove: 1
      draggable: 1
      expandable: 1
      multipleSelection: 1
      isExpanded: 1
      label:
        m_Text: Keys
        m_Image: {fileID: 0}
        m_Tooltip: 
      headerHeight: 18
      footerHeight: 13
      slideEasing: 0.15
      verticalSpacing: 2
      showDefaultBackground: 1
      elementDisplayType: 0
      elementNameProperty: 
      elementNameOverride: 
      elementIcon: {fileID: 0}
    reqReferences: {fileID: 0}
    isExpanded: 1
    _keyValues: 01000000
    _keys: 01000000
    _values:
    - _targetType: 2
      _triggerSlots:
      - {fileID: 11400000, guid: 2fd0fe5a4b5cd9b408a0926ed88b8a0e, type: 2}
  _mergeTriggerData: {fileID: 11400000, guid: ea2c1d480bbfa1d4287a73443755ecfa, type: 2}
  _mergeSelectData: {fileID: 11400000, guid: 320c6996c6430114e9cabee7ad5c845a, type: 2}
  _unitPreviewSprite: {fileID: 21300000, guid: 74f921a8cd94d044fba68315c474765e, type: 3}
  _unitName: "\uC5D8\uD504 \uAD81\uC218"
  _skillDescription: "\uC232\uC9C0\uAE30\uC758 \uD65C \uC19C\uC528"
  _description: "\uB204\uAD6C\uBCF4\uB2E4 \uBE60\uB978 \uC18D\uB3C4\uB85C \uC801\uC744
    \uACF5\uACA9\uD55C\uB2E4."
  _gimmick1:
    _name: 
    _value: 0
    _icon: {fileID: 0}
    _plusLevel: 0
    _plusReinforce: 0
    _format: '{0}'
  _gimmick2:
    _name: 
    _value: 0
    _icon: {fileID: 0}
    _plusLevel: 0
    _plusReinforce: 0
    _format: '{0}'
  _gimmick3:
    _name: 
    _value: 0
    _icon: {fileID: 0}
    _plusLevel: 0
    _plusReinforce: 0
    _format: '{0}'
  _storyTitle: "\uC5B4\uC774 \uAC70\uAE30 \uB108. \uADF8 \uC774\uC0C1\uC740 \uC811\uADFC
    \uAE08\uC9C0\uC57C~"
  _storyDescription: "\uC2E0\uC131\uD55C \uC232\uC758 \uACBD\uACC4\uC5D0\uC11C \uC232\uC9C0\uAE30\uB85C
    \uD65C\uB3D9\uD558\uB294 \uC5D8\uD504 \uC544\uAC00\uC528.\r\n\r\n\uADF8\uB140\uC758
    \uBBF8\uBAA8\uC5D0 \uBC18\uD55C \uC774\uC885\uC871 \uCCAD\uB144\uB4E4\uC774 \uC790\uC8FC
    \uCC3E\uC544\uC624\uC9C0\uB9CC,\r\n\uADF8\uB54C\uB9C8\uB2E4 \uD654\uB824\uD55C
    \uD65C \uC19C\uC528\uB85C \uB2E8\uB2E8\uD788 \uACBD\uACE0\uB97C \uB193\uB294\uB2E4."
  _grade: 2
  _proxyId: -1
  _reinforceData: {fileID: 11400000, guid: b03c8fc25870f3d47a4bb203f39544e1, type: 2}
  _combat:
    _defaultStat: 10
    _levelCoeff:
      _coeffType: 0
      _statCoeff: 5
    _upgradeCoeff:
      _coeffType: 0
      _statCoeff: 10
    _mergeCoeff:
      _coeffType: 1
      _statCoeff: 0
  _attackSpeed:
    _defaultStat: 0.3
    _levelCoeff:
      _coeffType: 0
      _statCoeff: 0
    _upgradeCoeff:
      _coeffType: 0
      _statCoeff: 0
    _mergeCoeff:
      _coeffType: 0
      _statCoeff: -0.025
  _criticalPercent:
    _defaultStat: 0.05
    _levelCoeff:
      _coeffType: 0
      _statCoeff: 0
    _upgradeCoeff:
      _coeffType: 0
      _statCoeff: 0
    _mergeCoeff:
      _coeffType: 0
      _statCoeff: 0
  _criticalCombat:
    _defaultStat: 1.5
    _levelCoeff:
      _coeffType: 0
      _statCoeff: 0
    _upgradeCoeff:
      _coeffType: 0
      _statCoeff: 0
    _mergeCoeff:
      _coeffType: 0
      _statCoeff: 0
