%YAML 1.1
%TAG !u! tag:unity3d.com,2011:
--- !u!114 &11400000
MonoBehaviour:
  m_ObjectHideFlags: 0
  m_CorrespondingSourceObject: {fileID: 0}
  m_PrefabInstance: {fileID: 0}
  m_PrefabAsset: {fileID: 0}
  m_GameObject: {fileID: 0}
  m_Enabled: 1
  m_EditorHideFlags: 0
  m_Script: {fileID: 11500000, guid: 21c8238f6699aa44aa761c522d1447fb, type: 3}
  m_Name: 4012Ifrit
  m_EditorClassIdentifier: 
  _dataId: 4012
  _skinId: 4012
  _skillTriggerData:
    reorderableList:
      canAdd: 1
      canRemove: 1
      draggable: 1
      expandable: 1
      multipleSelection: 1
      isExpanded: 1
      label:
        m_Text: Keys
        m_Image: {fileID: 0}
        m_Tooltip: 
      headerHeight: 18
      footerHeight: 13
      slideEasing: 0.15
      verticalSpacing: 2
      showDefaultBackground: 1
      elementDisplayType: 0
      elementNameProperty: 
      elementNameOverride: 
      elementIcon: {fileID: 0}
    reqReferences: {fileID: 0}
    isExpanded: 1
    _keyValues: 000000000100000002000000
    _keys: 000000000100000002000000
    _values:
    - _targetType: 1
      _triggerSlots:
      - {fileID: 11400000, guid: 48f1b8194a254924a9a201fc6d86eabc, type: 2}
    - _targetType: 2
      _triggerSlots:
      - {fileID: 11400000, guid: a5d331032b44c6e4b9fb5ec5198cf712, type: 2}
    - _targetType: 5
      _triggerSlots:
      - {fileID: 11400000, guid: 19438ffa8ef35014db8e73c2990ae399, type: 2}
  _mergeTriggerData: {fileID: 11400000, guid: ea2c1d480bbfa1d4287a73443755ecfa, type: 2}
  _mergeSelectData: {fileID: 11400000, guid: 320c6996c6430114e9cabee7ad5c845a, type: 2}
  _unitPreviewSprite: {fileID: 21300000, guid: 0ff65a79d21770b47a64ddd9c41787f7, type: 3}
  _unitName: "\uC774\uD504\uB9AC\uD2B8"
  _skillDescription: "\uAEBC\uC9C0\uC9C0 \uC54A\uB294 \uC758\uC9C0"
  _description: "\uBB34\uC791\uC704 \uC801 \uD0C0\uC77C \uC704\uB85C \uC9C0\uC18D
    \uD53C\uD574\uB97C \uC785\uD788\uBA70 \n\uC77C\uC815 \uD655\uB960\uB85C \uD654\uC0C1\uC744
    \uC785\uAC8C \uD558\uB294 \uAE30\uB465\uC744 \uC18C\uD658\uD55C\uB2E4."
  _gimmick1:
    _name: "\uBD88\uAE30\uB465 \uC2DC\uAC04"
    _value: 2.5
    _icon: {fileID: 21300000, guid: 6e0c3689493f8cb40a1f6a6c240e4b1d, type: 3}
    _plusLevel: 0.05
    _plusReinforce: 0.05
    _format: '{0}s'
  _gimmick2:
    _name: "\uBD88\uAE30\uB465 \uD53C\uD574"
    _value: 20
    _icon: {fileID: 21300000, guid: 6e0c3689493f8cb40a1f6a6c240e4b1d, type: 3}
    _plusLevel: 0
    _plusReinforce: 10
    _format: '{0}'
  _gimmick3:
    _name: "\uD654\uC0C1 \uD655\uB960"
    _value: 0.4
    _icon: {fileID: 21300000, guid: 940fdcb0e684c394281a5bee0fca9fc8, type: 3}
    _plusLevel: 0
    _plusReinforce: 0.05
    _format: '{0:0.#%}'
  _storyTitle: "\uC774 \uBAB8\uC758 \uC758\uC9C0\uB294 \uC5B8\uC81C\uAE4C\uC9C0\uACE0
    \uBD88\uD0C0\uC624\uB974\uB9AC!"
  _storyDescription: "\uBC31\uC804\uC758 \uB178\uC7A5\uC774 \uC8FD\uACE0 \uB09C \uB4A4\uC5D0
    \uC815\uB839\uC73C\uB85C \uD658\uC0DD\uD588\uB2E4.\r\n\r\n\uADF8 \uC790\uC2E0\uC758
    \uC5F4\uC815\uC744 \uBD88\uD0DC\uC6CC \uC801\uB4E4\uC744 \uACF5\uACA9\uD55C\uB2E4."
  _grade: 4
  _proxyId: -1
  _reinforceData: {fileID: 11400000, guid: b03c8fc25870f3d47a4bb203f39544e1, type: 2}
  _combat:
    _defaultStat: 30
    _levelCoeff:
      _coeffType: 0
      _statCoeff: 15
    _upgradeCoeff:
      _coeffType: 0
      _statCoeff: 20
    _mergeCoeff:
      _coeffType: 1
      _statCoeff: 0
  _attackSpeed:
    _defaultStat: 1.2
    _levelCoeff:
      _coeffType: 0
      _statCoeff: 0
    _upgradeCoeff:
      _coeffType: 0
      _statCoeff: 0
    _mergeCoeff:
      _coeffType: 0
      _statCoeff: -0.025
  _criticalPercent:
    _defaultStat: 0.05
    _levelCoeff:
      _coeffType: 0
      _statCoeff: 0
    _upgradeCoeff:
      _coeffType: 0
      _statCoeff: 0
    _mergeCoeff:
      _coeffType: 0
      _statCoeff: 0
  _criticalCombat:
    _defaultStat: 1.5
    _levelCoeff:
      _coeffType: 0
      _statCoeff: 0
    _upgradeCoeff:
      _coeffType: 0
      _statCoeff: 0
    _mergeCoeff:
      _coeffType: 0
      _statCoeff: 0
