%YAML 1.1
%TAG !u! tag:unity3d.com,2011:
--- !u!114 &11400000
MonoBehaviour:
  m_ObjectHideFlags: 0
  m_CorrespondingSourceObject: {fileID: 0}
  m_PrefabInstance: {fileID: 0}
  m_PrefabAsset: {fileID: 0}
  m_GameObject: {fileID: 0}
  m_Enabled: 1
  m_EditorHideFlags: 0
  m_Script: {fileID: 11500000, guid: 21c8238f6699aa44aa761c522d1447fb, type: 3}
  m_Name: 5002DoubleSword
  m_EditorClassIdentifier: 
  _dataId: 5002
  _skinId: 5002
  _skillTriggerData:
    reorderableList:
      canAdd: 1
      canRemove: 1
      draggable: 1
      expandable: 1
      multipleSelection: 1
      isExpanded: 1
      label:
        m_Text: Keys
        m_Image: {fileID: 0}
        m_Tooltip: 
      headerHeight: 18
      footerHeight: 13
      slideEasing: 0.15
      verticalSpacing: 2
      showDefaultBackground: 1
      elementDisplayType: 0
      elementNameProperty: 
      elementNameOverride: 
      elementIcon: {fileID: 0}
    reqReferences: {fileID: 0}
    isExpanded: 1
    _keyValues: 0100000000000000
    _keys: 0100000000000000
    _values:
    - _targetType: 2
      _triggerSlots:
      - {fileID: 11400000, guid: 6974e5bb6d598e64f8a99db2b6994cc4, type: 2}
    - _targetType: 1
      _triggerSlots:
      - {fileID: 11400000, guid: 5f70860847a4f4943ab2d98d0f5341ae, type: 2}
  _mergeTriggerData: {fileID: 11400000, guid: ea2c1d480bbfa1d4287a73443755ecfa, type: 2}
  _mergeSelectData: {fileID: 11400000, guid: 320c6996c6430114e9cabee7ad5c845a, type: 2}
  _unitPreviewSprite: {fileID: 21300000, guid: da2c7fe69538d684481d7c7bca2d1833, type: 3}
  _unitName: "\uC30D\uAC80\uAE30\uC0AC"
  _skillDescription: "\uC30D\uAC80 \uB09C\uBB34"
  _description: "\uACF5\uACA9\uC744 \uAC70\uB4ED\uD560 \uB54C\uB9C8\uB2E4 \uACF5\uACA9
    \uC18D\uB3C4\uAC00 \uBE68\uB77C\uC9C4\uB2E4. \n\uD06C\uB9AC\uD2F0\uCEEC \uBC1C\uB3D9
    \uC2DC \uACF5\uACA9 \uC18D\uB3C4\uAC00 \uCD08\uAE30\uD654\uB41C\uB2E4."
  _gimmick1:
    _name: "\uC18D\uB3C4 \uC99D\uAC00\uC728"
    _value: 0.1
    _icon: {fileID: 21300000, guid: b0ca7f07a34303744bd6c223682b9281, type: 3}
    _plusLevel: 0.01
    _plusReinforce: 0.05
    _format: '{0}'
  _gimmick2:
    _name: "\uCD5C\uB300 \uC18D\uB3C4"
    _value: 2
    _icon: {fileID: 21300000, guid: b0ca7f07a34303744bd6c223682b9281, type: 3}
    _plusLevel: 0.05
    _plusReinforce: 0.1
    _format: '{0}'
  _gimmick3:
    _name: 
    _value: 0
    _icon: {fileID: 0}
    _plusLevel: 0
    _plusReinforce: 0
    _format: '{0}'
  _storyTitle: "\uC5ED\uC2DC \uB09C \uB108\uBB34 \uCFE8\uD574! \uBA4B\uC788\uC5B4!!"
  _storyDescription: "\uC30D\uAC80\uC744 \uD718\uB458\uB7EC \uC801\uB4E4\uC744 \uB3C4\uB959
    \uB0B4\uB294 \uAE30\uC0AC.\r\n\r\n\uAC80\uD22C\uC0AC \uCD9C\uC2E0\uC73C\uB85C,
    1000\uC804 1000\uC2B9\uC758 \uC804\uC124\uC744 \uB0A8\uAE34 \uD6C4\r\n\uAE30\uC0AC\uB2E8\uC5D0
    \uD2B9\uBCC4 \uCC44\uC6A9\uB418\uC5C8\uB2E4.\r\n\r\n\uC804\uD22C\uAC00 \uC9C0\uC18D\uB420\uC218\uB85D
    \uAC80\uC744 \uD718\uB450\uB974\uB294\r\n\uADF8\uC758 \uB450 \uD314\uC740 \uB208\uC5D0
    \uBCF4\uC774\uC9C0 \uC54A\uC744 \uC18D\uB3C4\uB85C \uAC00\uC18D\uB41C\uB2E4."
  _grade: 5
  _proxyId: -1
  _reinforceData: {fileID: 11400000, guid: b03c8fc25870f3d47a4bb203f39544e1, type: 2}
  _combat:
    _defaultStat: 0
    _levelCoeff:
      _coeffType: 0
      _statCoeff: 10
    _upgradeCoeff:
      _coeffType: 0
      _statCoeff: 10
    _mergeCoeff:
      _coeffType: 1
      _statCoeff: 0
  _attackSpeed:
    _defaultStat: 1
    _levelCoeff:
      _coeffType: 0
      _statCoeff: 0
    _upgradeCoeff:
      _coeffType: 0
      _statCoeff: 0
    _mergeCoeff:
      _coeffType: 0
      _statCoeff: -0.025
  _criticalPercent:
    _defaultStat: 0.05
    _levelCoeff:
      _coeffType: 0
      _statCoeff: 0
    _upgradeCoeff:
      _coeffType: 0
      _statCoeff: 0
    _mergeCoeff:
      _coeffType: 0
      _statCoeff: 0
  _criticalCombat:
    _defaultStat: 1.5
    _levelCoeff:
      _coeffType: 0
      _statCoeff: 0
    _upgradeCoeff:
      _coeffType: 0
      _statCoeff: 0
    _mergeCoeff:
      _coeffType: 0
      _statCoeff: 0
