%YAML 1.1
%TAG !u! tag:unity3d.com,2011:
--- !u!114 &11400000
MonoBehaviour:
  m_ObjectHideFlags: 0
  m_CorrespondingSourceObject: {fileID: 0}
  m_PrefabInstance: {fileID: 0}
  m_PrefabAsset: {fileID: 0}
  m_GameObject: {fileID: 0}
  m_Enabled: 1
  m_EditorHideFlags: 0
  m_Script: {fileID: 11500000, guid: 21c8238f6699aa44aa761c522d1447fb, type: 3}
  m_Name: 5009SnowPrincess
  m_EditorClassIdentifier: 
  _dataId: 5009
  _skinId: 5009
  _skillTriggerData:
    reorderableList:
      canAdd: 1
      canRemove: 1
      draggable: 1
      expandable: 1
      multipleSelection: 1
      isExpanded: 1
      label:
        m_Text: Keys
        m_Image: {fileID: 0}
        m_Tooltip: 
      headerHeight: 18
      footerHeight: 13
      slideEasing: 0.15
      verticalSpacing: 2
      showDefaultBackground: 1
      elementDisplayType: 0
      elementNameProperty: 
      elementNameOverride: 
      elementIcon: {fileID: 0}
    reqReferences: {fileID: 0}
    isExpanded: 1
    _keyValues: 010000000000000002000000
    _keys: 010000000000000002000000
    _values:
    - _targetType: 2
      _triggerSlots:
      - {fileID: 11400000, guid: fa9b359abbef9d84cacc711fff89bcd8, type: 2}
    - _targetType: 1
      _triggerSlots:
      - {fileID: 11400000, guid: 493cd5ea79cbcbd488270f74067bcc30, type: 2}
    - _targetType: 1
      _triggerSlots:
      - {fileID: 11400000, guid: c979ea86140c04f4da5b3791b649b0fa, type: 2}
  _mergeTriggerData: {fileID: 11400000, guid: ea2c1d480bbfa1d4287a73443755ecfa, type: 2}
  _mergeSelectData: {fileID: 11400000, guid: 320c6996c6430114e9cabee7ad5c845a, type: 2}
  _unitPreviewSprite: {fileID: 21300000, guid: 720ff7f06302c6b47ad6454f33e29c31, type: 3}
  _unitName: "\uB208\uC758 \uACF5\uC8FC"
  _skillDescription: "\uD718\uBAB0\uC544\uCE58\uB294 \uB208\uBCF4\uB77C"
  _description: "\uB9F5 \uC804\uCCB4\uC5D0 \uAC15\uB825\uD55C \uB208\uBCF4\uB77C\uB97C
    \uD718\uBAB0\uC544\uCE58\uAC8C \uD55C\uB2E4. \n\uB208\uBCF4\uB77C\uC5D0 \uB178\uCD9C\uB41C
    \uC801\uC740 \uC9C0\uC18D \uD53C\uD574\uB97C \uC785\uC73C\uBA70 \uC77C\uC815
    \uD655\uB960\uB85C \uBE59\uACB0 \uC0C1\uD0DC\uC5D0 \uAC78\uB9B0\uB2E4."
  _gimmick1:
    _name: "\uC2A4\uD0AC \uCFE8\uD0C0\uC784"
    _value: 8
    _icon: {fileID: 21300000, guid: 6e0c3689493f8cb40a1f6a6c240e4b1d, type: 3}
    _plusLevel: 0
    _plusReinforce: -0.25
    _format: '{0}s'
  _gimmick2:
    _name: "\uB208\uBCF4\uB77C \uACF5\uACA9\uB825"
    _value: 0.1
    _icon: {fileID: 21300000, guid: 6e0c3689493f8cb40a1f6a6c240e4b1d, type: 3}
    _plusLevel: 0.01
    _plusReinforce: 0.05
    _format: '{0}'
  _gimmick3:
    _name: "\uBE59\uACB0 \uD655\uB960"
    _value: 0.1
    _icon: {fileID: 21300000, guid: 25054b03825c71f45a8463e761e40808, type: 3}
    _plusLevel: 0.01
    _plusReinforce: 0.05
    _format: '{0:0.#%}'
  _storyTitle: "\uC624\uB298\uC740 \uC5B4\uB514\uB85C \uAC00\uBCFC\uAE4C\uC694\u266B"
  _storyDescription: "\uCDA5\uB514 \uCD94\uC6B4 \uBD81\uBC29\uC758 \uD55C \uB098\uB77C\uC5D0\uC11C
    \uC628 \uACF5\uC8FC\uB2D8.\r\n\r\n\uD3C9\uC0DD\uC744 \uAD81\uAD90 \uC548\uC5D0\uC11C\uB9CC
    \uC9C0\uB0B4\uB2E4 \uACA8\uC6B0 \uD5C8\uB77D\uC744 \uBC1B\uC544\r\n\uC138\uC0C1
    \uBC16\uC744 \uBAA8\uD5D8\uD560 \uC218 \uC788\uAC8C \uB418\uC5C8\uB2E4.\r\n\n\uC218\uD589\uC6D0\uC740
    \uBE59\uACB0 \uAC80\uC0AC \uD55C \uBA85\uBFD0\uC774\uC9C0\uB9CC, \r\n\uADF8\uB140
    \uB610\uD55C \uAC15\uB825\uD55C \uB9C8\uBC95\uC0AC\uB77C \uAC71\uC815\uC774 \uC5C6\uB2E4."
  _grade: 5
  _proxyId: -1
  _reinforceData: {fileID: 11400000, guid: b03c8fc25870f3d47a4bb203f39544e1, type: 2}
  _combat:
    _defaultStat: 25
    _levelCoeff:
      _coeffType: 0
      _statCoeff: 15
    _upgradeCoeff:
      _coeffType: 0
      _statCoeff: 20
    _mergeCoeff:
      _coeffType: 1
      _statCoeff: 0
  _attackSpeed:
    _defaultStat: 1
    _levelCoeff:
      _coeffType: 0
      _statCoeff: 0
    _upgradeCoeff:
      _coeffType: 0
      _statCoeff: 0
    _mergeCoeff:
      _coeffType: 0
      _statCoeff: -0.025
  _criticalPercent:
    _defaultStat: 0.05
    _levelCoeff:
      _coeffType: 0
      _statCoeff: 0
    _upgradeCoeff:
      _coeffType: 0
      _statCoeff: 0
    _mergeCoeff:
      _coeffType: 0
      _statCoeff: 0
  _criticalCombat:
    _defaultStat: 1.5
    _levelCoeff:
      _coeffType: 0
      _statCoeff: 0
    _upgradeCoeff:
      _coeffType: 0
      _statCoeff: 0
    _mergeCoeff:
      _coeffType: 0
      _statCoeff: 0
