%YAML 1.1
%TAG !u! tag:unity3d.com,2011:
--- !u!114 &11400000
MonoBehaviour:
  m_ObjectHideFlags: 0
  m_CorrespondingSourceObject: {fileID: 0}
  m_PrefabInstance: {fileID: 0}
  m_PrefabAsset: {fileID: 0}
  m_GameObject: {fileID: 0}
  m_Enabled: 1
  m_EditorHideFlags: 0
  m_Script: {fileID: 11500000, guid: 21c8238f6699aa44aa761c522d1447fb, type: 3}
  m_Name: 5013SandStorm
  m_EditorClassIdentifier: 
  _dataId: 5013
  _skinId: 5013
  _skillTriggerData:
    reorderableList:
      canAdd: 1
      canRemove: 1
      draggable: 1
      expandable: 1
      multipleSelection: 1
      isExpanded: 1
      label:
        m_Text: Keys
        m_Image: {fileID: 0}
        m_Tooltip: 
      headerHeight: 18
      footerHeight: 13
      slideEasing: 0.15
      verticalSpacing: 2
      showDefaultBackground: 1
      elementDisplayType: 0
      elementNameProperty: 
      elementNameOverride: 
      elementIcon: {fileID: 0}
    reqReferences: {fileID: 0}
    isExpanded: 1
    _keyValues: 000000000200000001000000
    _keys: 000000000200000001000000
    _values:
    - _targetType: 1
      _triggerSlots:
      - {fileID: 11400000, guid: dc7644826aff547468778eec17cc94e4, type: 2}
    - _targetType: 5
      _triggerSlots:
      - {fileID: 11400000, guid: 5c3494701b19f1c41ad958dec05e5db6, type: 2}
    - _targetType: 2
      _triggerSlots:
      - {fileID: 11400000, guid: 2d88794a922a82646aa19d1fcb17d445, type: 2}
  _mergeTriggerData: {fileID: 11400000, guid: ea2c1d480bbfa1d4287a73443755ecfa, type: 2}
  _mergeSelectData: {fileID: 11400000, guid: 320c6996c6430114e9cabee7ad5c845a, type: 2}
  _unitPreviewSprite: {fileID: 21300000, guid: 9d882529833580541b7eafe7d16b107d, type: 3}
  _unitName: "\uBAA8\uB798\uD3ED\uD48D \uC0E4\uB9AC\uC57C\uB4DC"
  _skillDescription: "\uBAA8\uB798 \uD654\uC0B4 \uC138\uB840"
  _description: "\uBB34\uC791\uC704 \uC801 \uD0C0\uC77C \uC704\uB85C \uBAA8\uB798
    \uD654\uC0B4 \uC138\uB840\uB97C \uD37C\uBD93\uB294\uB2E4. \n\uD53C\uD574\uB97C
    \uC785\uC740 \uC801\uC740 \uC774\uB3D9\uC18D\uB3C4\uAC00 \uAC10\uC18C\uD55C\uB2E4."
  _gimmick1:
    _name: "\uC2A4\uD0AC \uCFE8\uD0C0\uC784"
    _value: 7
    _icon: {fileID: 21300000, guid: 6e0c3689493f8cb40a1f6a6c240e4b1d, type: 3}
    _plusLevel: 0
    _plusReinforce: -0.25
    _format: '{0}s'
  _gimmick2:
    _name: "\uD3ED\uD48D \uACF5\uACA9\uB825"
    _value: 0.25
    _icon: {fileID: 21300000, guid: 6e0c3689493f8cb40a1f6a6c240e4b1d, type: 3}
    _plusLevel: 0
    _plusReinforce: 0.05
    _format: '{0}'
  _gimmick3:
    _name: "\uD3ED\uD48D \uC9C0\uC18D\uC2DC\uAC04"
    _value: 2.5
    _icon: {fileID: 21300000, guid: 6e0c3689493f8cb40a1f6a6c240e4b1d, type: 3}
    _plusLevel: 0
    _plusReinforce: 0.05
    _format: '{0}s'
  _storyTitle: "\uBAA8\uB798\uCC1C\uC9C8 \uB2F9\uD558\uACE0 \uC2F6\uC9C0 \uC54A\uC73C\uBA74
    \uC800\uB9AC \uAEBC\uC838."
  _storyDescription: "\uC0AC\uB9C9 \uC9C0\uB300 \uCD9C\uC2E0\uC758 \uAE4C\uCE60\uD55C
    \uCCAD\uB144.\r\n\r\n\uC790\uC2E0\uC758 \uACFC\uAC70\uC5D0 \uB300\uD574 \uB9CE\uC740
    \uB9D0\uC740 \uD558\uC9C0 \uC54A\uC9C0\uB9CC,\r\n\uAC00\uB054\uC529 \uC0AC\uB9C9
    \uC9C0\uB300 \uBC29\uD5A5\uC744 \uBC14\uB77C\uBCF4\uBA70 \uC0DD\uAC01\uC5D0 \uC7A0\uAE30\uACE4
    \uD55C\uB2E4."
  _grade: 5
  _proxyId: -1
  _reinforceData: {fileID: 11400000, guid: b03c8fc25870f3d47a4bb203f39544e1, type: 2}
  _combat:
    _defaultStat: 20
    _levelCoeff:
      _coeffType: 0
      _statCoeff: 10
    _upgradeCoeff:
      _coeffType: 0
      _statCoeff: 25
    _mergeCoeff:
      _coeffType: 1
      _statCoeff: 0
  _attackSpeed:
    _defaultStat: 0.6
    _levelCoeff:
      _coeffType: 0
      _statCoeff: 0
    _upgradeCoeff:
      _coeffType: 0
      _statCoeff: 0
    _mergeCoeff:
      _coeffType: 0
      _statCoeff: -0.025
  _criticalPercent:
    _defaultStat: 0.05
    _levelCoeff:
      _coeffType: 0
      _statCoeff: 0
    _upgradeCoeff:
      _coeffType: 0
      _statCoeff: 0
    _mergeCoeff:
      _coeffType: 0
      _statCoeff: 0
  _criticalCombat:
    _defaultStat: 1.5
    _levelCoeff:
      _coeffType: 0
      _statCoeff: 0
    _upgradeCoeff:
      _coeffType: 0
      _statCoeff: 0
    _mergeCoeff:
      _coeffType: 0
      _statCoeff: 0
