%YAML 1.1
%TAG !u! tag:unity3d.com,2011:
--- !u!114 &11400000
MonoBehaviour:
  m_ObjectHideFlags: 0
  m_CorrespondingSourceObject: {fileID: 0}
  m_PrefabInstance: {fileID: 0}
  m_PrefabAsset: {fileID: 0}
  m_GameObject: {fileID: 0}
  m_Enabled: 1
  m_EditorHideFlags: 0
  m_Script: {fileID: 11500000, guid: e40de28fb9c7a2642964abd01829a1de, type: 3}
  m_Name: 5 EData
  m_EditorClassIdentifier: 
  _dataId: 5
  _emoticonIcon: {fileID: 21300000, guid: d1b59af4be6cf944597d8cfb770767e4, type: 3}
  _objectData: {fileID: 1234349342037506801, guid: 2ffac6be1607fee4c8002e13df6646b2,
    type: 3}
