%YAML 1.1
%TAG !u! tag:unity3d.com,2011:
--- !u!114 &11400000
MonoBehaviour:
  m_ObjectHideFlags: 0
  m_CorrespondingSourceObject: {fileID: 0}
  m_PrefabInstance: {fileID: 0}
  m_PrefabAsset: {fileID: 0}
  m_GameObject: {fileID: 0}
  m_Enabled: 1
  m_EditorHideFlags: 0
  m_Script: {fileID: 11500000, guid: e40de28fb9c7a2642964abd01829a1de, type: 3}
  m_Name: 6 EData
  m_EditorClassIdentifier: 
  _dataId: 6
  _emoticonIcon: {fileID: 21300000, guid: aa035dd45b878d146a48b5f5a9e4ba74, type: 3}
  _objectData: {fileID: 4781035507065768537, guid: 1a4bdd7730576384c944d838b42d56fb,
    type: 3}
