%YAML 1.1
%TAG !u! tag:unity3d.com,2011:
--- !u!114 &11400000
MonoBehaviour:
  m_ObjectHideFlags: 0
  m_CorrespondingSourceObject: {fileID: 0}
  m_PrefabInstance: {fileID: 0}
  m_PrefabAsset: {fileID: 0}
  m_GameObject: {fileID: 0}
  m_Enabled: 1
  m_EditorHideFlags: 0
  m_Script: {fileID: 11500000, guid: e40de28fb9c7a2642964abd01829a1de, type: 3}
  m_Name: 9 EData
  m_EditorClassIdentifier: 
  _dataId: 9
  _emoticonIcon: {fileID: 21300000, guid: 53cd8539cb2ba5d45b931ac25726b276, type: 3}
  _objectData: {fileID: 4305776535577172285, guid: 83834720323d74340a736b9db9ac34e2,
    type: 3}
  _shopIdData: 6005
