%YAML 1.1
%TAG !u! tag:unity3d.com,2011:
--- !u!114 &11400000
MonoBehaviour:
  m_ObjectHideFlags: 0
  m_CorrespondingSourceObject: {fileID: 0}
  m_PrefabInstance: {fileID: 0}
  m_PrefabAsset: {fileID: 0}
  m_GameObject: {fileID: 0}
  m_Enabled: 1
  m_EditorHideFlags: 0
  m_Script: {fileID: 11500000, guid: bfff0e6343cbd3249be787f05f5f34c5, type: 3}
  m_Name: 2011Attack
  m_EditorClassIdentifier: 
  _skillFrames:
  - id: 0
  - id: 1
  - id: 2
  references:
    version: 1
    00000000:
      type: {class: LookAtTarget, ns: , asm: Assembly-CSharp}
      data:
        _waitTime: 0.5
    00000001:
      type: {class: WaitAction, ns: , asm: Assembly-CSharp}
      data:
        _waitTime: 0
        _skillEffect:
          _effectData: {fileID: 11400000, guid: e6200f8a0bc2575429becc259a4cc2b6,
            type: 2}
          _producePosition: 5
          _sortType: 1
          _sortingOrder: 0
    00000002:
      type: {class: MultiTarget, ns: , asm: Assembly-CSharp}
      data:
        _waitTime: 0
        _multiType: 0
        _fRadius: 100
        _skillAsset: {fileID: 11400000, guid: d9a16a0e29686474d954ecf945e64a1b, type: 2}
        _count: 3
