%YAML 1.1
%TAG !u! tag:unity3d.com,2011:
--- !u!114 &11400000
MonoBehaviour:
  m_ObjectHideFlags: 0
  m_CorrespondingSourceObject: {fileID: 0}
  m_PrefabInstance: {fileID: 0}
  m_PrefabAsset: {fileID: 0}
  m_GameObject: {fileID: 0}
  m_Enabled: 1
  m_EditorHideFlags: 0
  m_Script: {fileID: 11500000, guid: bfff0e6343cbd3249be787f05f5f34c5, type: 3}
  m_Name: 4007Skill(1)
  m_EditorClassIdentifier: 
  _skillFrames:
  - id: 0
  references:
    version: 1
    00000000:
      type: {class: BuffAction, ns: , asm: Assembly-CSharp}
      data:
        _waitTime: 0
        _buffAsset: {fileID: 11400000, guid: cd8feade79534c3489aa5a95d37a79df, type: 2}
        _self: 0
