%YAML 1.1
%TAG !u! tag:unity3d.com,2011:
--- !u!114 &11400000
MonoBehaviour:
  m_ObjectHideFlags: 0
  m_CorrespondingSourceObject: {fileID: 0}
  m_PrefabInstance: {fileID: 0}
  m_PrefabAsset: {fileID: 0}
  m_GameObject: {fileID: 0}
  m_Enabled: 1
  m_EditorHideFlags: 0
  m_Script: {fileID: 11500000, guid: bfff0e6343cbd3249be787f05f5f34c5, type: 3}
  m_Name: 4006Attack
  m_EditorClassIdentifier: 
  _skillFrames:
  - id: 0
  - id: 1
  - id: 2
  references:
    version: 1
    00000000:
      type: {class: LookAtTarget, ns: , asm: Assembly-CSharp}
      data:
        _waitTime: 0
    00000001:
      type: {class: BulletAction, ns: , asm: Assembly-CSharp}
      data:
        _waitTime: 0
        _skillEffect:
          _effectData: {fileID: 11400000, guid: 5fbcc0bed5261cb499cc95329bdf861f,
            type: 2}
          _producePosition: 2
          _sortType: 0
          _sortingOrder: 12000
        _hitEffect:
          _effectData: {fileID: 11400000, guid: 25dee36e45fc321499e57a06462bf7c8,
            type: 2}
          _producePosition: 5
          _sortType: 1
          _sortingOrder: 0
        _isDirMatch: 0
        _moveSpeed: 1200
    00000002:
      type: {class: DamageAction, ns: , asm: Assembly-CSharp}
      data:
        _waitTime: 0
        _critical: {fileID: 0}
