%YAML 1.1
%TAG !u! tag:unity3d.com,2011:
--- !u!114 &11400000
MonoBehaviour:
  m_ObjectHideFlags: 0
  m_CorrespondingSourceObject: {fileID: 0}
  m_PrefabInstance: {fileID: 0}
  m_PrefabAsset: {fileID: 0}
  m_GameObject: {fileID: 0}
  m_Enabled: 1
  m_EditorHideFlags: 0
  m_Script: {fileID: 11500000, guid: 5154a9adf1abdb748b3419be062a555b, type: 3}
  m_Name: 4006StatBuff
  m_EditorClassIdentifier: 
  _buffType: 18
  _applyType: 3
  _effectData: {fileID: 0}
  _isFixedOrder: 0
  _buffTag: 4006
  _lifeTime:
    _defaultStat: 0.5
    _levelCoeff:
      _coeffType: 0
      _statCoeff: 0
    _upgradeCoeff:
      _coeffType: 0
      _statCoeff: 0
    _mergeCoeff:
      _coeffType: 0
      _statCoeff: 0
  _statEffectDataList: []
  _combat:
    _defaultStat: 1
    _levelCoeff:
      _coeffType: 0
      _statCoeff: 0
    _upgradeCoeff:
      _coeffType: 0
      _statCoeff: 0
    _mergeCoeff:
      _coeffType: 0
      _statCoeff: 0
  _speed:
    _defaultStat: 1.5
    _levelCoeff:
      _coeffType: 0
      _statCoeff: 0.01
    _upgradeCoeff:
      _coeffType: 0
      _statCoeff: 0.1
    _mergeCoeff:
      _coeffType: 0
      _statCoeff: 0.25
  _percent:
    _defaultStat: 1
    _levelCoeff:
      _coeffType: 0
      _statCoeff: 0
    _upgradeCoeff:
      _coeffType: 0
      _statCoeff: 0
    _mergeCoeff:
      _coeffType: 0
      _statCoeff: 0
  _critical:
    _defaultStat: 1
    _levelCoeff:
      _coeffType: 0
      _statCoeff: 0
    _upgradeCoeff:
      _coeffType: 0
      _statCoeff: 0
    _mergeCoeff:
      _coeffType: 0
      _statCoeff: 0
  _isPercent: 1
