%YAML 1.1
%TAG !u! tag:unity3d.com,2011:
--- !u!114 &11400000
MonoBehaviour:
  m_ObjectHideFlags: 0
  m_CorrespondingSourceObject: {fileID: 0}
  m_PrefabInstance: {fileID: 0}
  m_PrefabAsset: {fileID: 0}
  m_GameObject: {fileID: 0}
  m_Enabled: 1
  m_EditorHideFlags: 0
  m_Script: {fileID: 11500000, guid: 5fdcfb0c3dfddde41ac72ae891461a9d, type: 3}
  m_Name: 1 Theme
  m_EditorClassIdentifier: 
  _themeId: 1
  _selectTileEffect: {fileID: 21300000, guid: 2b101f9ccd79fb740a43c04b2f686529, type: 3}
  _themePreview: {fileID: 21300000, guid: 507ac4c3a927f6e44b7d783bb1ae26d4, type: 3}
  _tileList:
    reorderableList:
      canAdd: 1
      canRemove: 1
      draggable: 1
      expandable: 1
      multipleSelection: 1
      isExpanded: 1
      label:
        m_Text: Keys
        m_Image: {fileID: 0}
        m_Tooltip: 
      headerHeight: 18
      footerHeight: 13
      slideEasing: 0.15
      verticalSpacing: 2
      showDefaultBackground: 1
      elementDisplayType: 0
      elementNameProperty: 
      elementNameOverride: 
      elementIcon: {fileID: 0}
    reqReferences: {fileID: 0}
    isExpanded: 1
    _keyValues: 0100000000000000020000000300000004000000
    _keys: 0100000000000000020000000300000004000000
    _values:
    - {fileID: 21300000, guid: c618d541f0836c24c947a447c29ea205, type: 3}
    - {fileID: 21300000, guid: 215843df3938b8845a905715744aa8ac, type: 3}
    - {fileID: 21300000, guid: e3d8fe93124160c4ea277170a135c103, type: 3}
    - {fileID: 21300000, guid: d2d8ca9623cb670499d54bdb22b753b2, type: 3}
    - {fileID: 21300000, guid: 507ac4c3a927f6e44b7d783bb1ae26d4, type: 3}
