%YAML 1.1
%TAG !u! tag:unity3d.com,2011:
--- !u!114 &11400000
MonoBehaviour:
  m_ObjectHideFlags: 0
  m_CorrespondingSourceObject: {fileID: 0}
  m_PrefabInstance: {fileID: 0}
  m_PrefabAsset: {fileID: 0}
  m_GameObject: {fileID: 0}
  m_Enabled: 1
  m_EditorHideFlags: 0
  m_Script: {fileID: 11500000, guid: 5fdcfb0c3dfddde41ac72ae891461a9d, type: 3}
  m_Name: 11 Theme
  m_EditorClassIdentifier: 
  _themeId: 11
  _selectTileEffect: {fileID: 21300000, guid: 2b101f9ccd79fb740a43c04b2f686529, type: 3}
  _themePreview: {fileID: 21300000, guid: 2eadbedf062747d4b90d83f23b66c220, type: 3}
  _tileList:
    reorderableList:
      canAdd: 1
      canRemove: 1
      draggable: 1
      expandable: 1
      multipleSelection: 1
      isExpanded: 1
      label:
        m_Text: Keys
        m_Image: {fileID: 0}
        m_Tooltip: 
      headerHeight: 18
      footerHeight: 13
      slideEasing: 0.15
      verticalSpacing: 2
      showDefaultBackground: 1
      elementDisplayType: 0
      elementNameProperty: 
      elementNameOverride: 
      elementIcon: {fileID: 0}
    reqReferences: {fileID: 0}
    isExpanded: 1
    _keyValues: 0100000000000000020000000300000004000000
    _keys: 0100000000000000020000000300000004000000
    _values:
    - {fileID: 21300000, guid: d854947c1d3bca349ada8cbf390607d0, type: 3}
    - {fileID: 21300000, guid: 9497b7b8d8ed0474c88797c997d9d3dd, type: 3}
    - {fileID: 21300000, guid: 7c718480652873d49acd7d965f45010c, type: 3}
    - {fileID: 21300000, guid: b7e0b10c58d285049910374bccad5863, type: 3}
    - {fileID: 21300000, guid: 2eadbedf062747d4b90d83f23b66c220, type: 3}
