%YAML 1.1
%TAG !u! tag:unity3d.com,2011:
--- !u!114 &11400000
MonoBehaviour:
  m_ObjectHideFlags: 0
  m_CorrespondingSourceObject: {fileID: 0}
  m_PrefabInstance: {fileID: 0}
  m_PrefabAsset: {fileID: 0}
  m_GameObject: {fileID: 0}
  m_Enabled: 1
  m_EditorHideFlags: 0
  m_Script: {fileID: 11500000, guid: 5fdcfb0c3dfddde41ac72ae891461a9d, type: 3}
  m_Name: 7 Theme
  m_EditorClassIdentifier: 
  _themeId: 7
  _selectTileEffect: {fileID: 21300000, guid: 2b101f9ccd79fb740a43c04b2f686529, type: 3}
  _themePreview: {fileID: 21300000, guid: 59cf8ef131f10cf42965714a4d494985, type: 3}
  _tileList:
    reorderableList:
      canAdd: 1
      canRemove: 1
      draggable: 1
      expandable: 1
      multipleSelection: 1
      isExpanded: 1
      label:
        m_Text: Keys
        m_Image: {fileID: 0}
        m_Tooltip: 
      headerHeight: 18
      footerHeight: 13
      slideEasing: 0.15
      verticalSpacing: 2
      showDefaultBackground: 1
      elementDisplayType: 0
      elementNameProperty: 
      elementNameOverride: 
      elementIcon: {fileID: 0}
    reqReferences: {fileID: 0}
    isExpanded: 1
    _keyValues: 0100000000000000020000000300000004000000
    _keys: 0100000000000000020000000300000004000000
    _values:
    - {fileID: 21300000, guid: 357e593a2b728a743b4254e0811bbfc7, type: 3}
    - {fileID: 21300000, guid: 518530dd72c795948994b6bbe26f9da1, type: 3}
    - {fileID: 21300000, guid: 9b3faa80070c44149859866f1f1336e5, type: 3}
    - {fileID: 21300000, guid: d2cf3c1d46fef97458a3e93c5ded60e4, type: 3}
    - {fileID: 21300000, guid: 59cf8ef131f10cf42965714a4d494985, type: 3}
