%YAML 1.1
%TAG !u! tag:unity3d.com,2011:
--- !u!114 &11400000
MonoBehaviour:
  m_ObjectHideFlags: 0
  m_CorrespondingSourceObject: {fileID: 0}
  m_PrefabInstance: {fileID: 0}
  m_PrefabAsset: {fileID: 0}
  m_GameObject: {fileID: 0}
  m_Enabled: 1
  m_EditorHideFlags: 0
  m_Script: {fileID: 11500000, guid: 73339d8b9bdf6b841b259679238fe3c0, type: 3}
  m_Name: 4012Burn
  m_EditorClassIdentifier: 
  _buffType: 3
  _applyType: 1
  _effectData: {fileID: 11400000, guid: fb6d71274c6ed124e89c8eddb4d3323b, type: 2}
  _isFixedOrder: 0
  _buffTag: -1
  _lifeTime:
    _defaultStat: 2.5
    _levelCoeff:
      _coeffType: 0
      _statCoeff: 0
    _upgradeCoeff:
      _coeffType: 0
      _statCoeff: 0.05
    _mergeCoeff:
      _coeffType: 0
      _statCoeff: 0.1
  _cycleTime:
    _defaultStat: 0.5
    _levelCoeff:
      _coeffType: 0
      _statCoeff: 0
    _upgradeCoeff:
      _coeffType: 0
      _statCoeff: 0
    _mergeCoeff:
      _coeffType: 0
      _statCoeff: 0
  _range: 0
  _combat:
    _defaultStat: 20
    _levelCoeff:
      _coeffType: 0
      _statCoeff: 5
    _upgradeCoeff:
      _coeffType: 0
      _statCoeff: 10
    _mergeCoeff:
      _coeffType: 1
      _statCoeff: 0
  _count: 3
  _boomEffect: {fileID: 11400000, guid: 1dd5c882f9de1e342bec2d903072a839, type: 2}
