%YAML 1.1
%TAG !u! tag:unity3d.com,2011:
--- !u!114 &11400000
MonoBehaviour:
  m_ObjectHideFlags: 0
  m_CorrespondingSourceObject: {fileID: 0}
  m_PrefabInstance: {fileID: 0}
  m_PrefabAsset: {fileID: 0}
  m_GameObject: {fileID: 0}
  m_Enabled: 1
  m_EditorHideFlags: 0
  m_Script: {fileID: 11500000, guid: bfff0e6343cbd3249be787f05f5f34c5, type: 3}
  m_Name: 4012Skill(2)
  m_EditorClassIdentifier: 
  _skillFrames:
  - id: 0
  - id: 1
  references:
    version: 1
    00000000:
      type: {class: DamageOfType, ns: , asm: Assembly-CSharp}
      data:
        _waitTime: 0
        _type: 0
        _damage:
          _defaultStat: 20
          _levelCoeff:
            _coeffType: 0
            _statCoeff: 5
          _upgradeCoeff:
            _coeffType: 0
            _statCoeff: 10
          _mergeCoeff:
            _coeffType: 1
            _statCoeff: 0
    00000001:
      type: {class: PercentageAction, ns: , asm: Assembly-CSharp}
      data:
        _waitTime: 0
        _percent:
          _defaultStat: 0.4
          _levelCoeff:
            _coeffType: 0
            _statCoeff: 0
          _upgradeCoeff:
            _coeffType: 0
            _statCoeff: 0.05
          _mergeCoeff:
            _coeffType: 0
            _statCoeff: 0.1
        _successSkill: {fileID: 11400000, guid: f9fc8195b5279d747be81eec803a61c4,
          type: 2}
        _failSkill: {fileID: 0}
