%YAML 1.1
%TAG !u! tag:unity3d.com,2011:
--- !u!114 &11400000
MonoBehaviour:
  m_ObjectHideFlags: 0
  m_CorrespondingSourceObject: {fileID: 0}
  m_PrefabInstance: {fileID: 0}
  m_PrefabAsset: {fileID: 0}
  m_GameObject: {fileID: 0}
  m_Enabled: 1
  m_EditorHideFlags: 0
  m_Script: {fileID: 11500000, guid: bfff0e6343cbd3249be787f05f5f34c5, type: 3}
  m_Name: 9001Skill
  m_EditorClassIdentifier: 
  _skillFrames:
  - id: 0
  references:
    version: 1
    00000000:
      type: {class: RushAction, ns: , asm: Assembly-CSharp}
      data:
        _waitTime: 0
        _speed: 100
        _range: 3
        _effectData:
          _effectData: {fileID: 11400000, guid: 93a46f1695a2d6d468f42b9aa294c6de,
            type: 2}
          _producePosition: 2
          _sortType: 1
          _sortingOrder: 0
        _isNoDamage: 0
