%YAML 1.1
%TAG !u! tag:unity3d.com,2011:
--- !u!114 &11400000
MonoBehaviour:
  m_ObjectHideFlags: 0
  m_CorrespondingSourceObject: {fileID: 0}
  m_PrefabInstance: {fileID: 0}
  m_PrefabAsset: {fileID: 0}
  m_GameObject: {fileID: 0}
  m_Enabled: 1
  m_EditorHideFlags: 0
  m_Script: {fileID: 11500000, guid: e9905a2153d313f4c9113a63a4d95a2c, type: 3}
  m_Name: 3003ForestFairy
  m_EditorClassIdentifier: 
  _dataId: 3003
  _reserveCount: 5
  _skinAsset:
    m_AssetGUID: 6c63045677577904a8bf8a65397f315f
    m_SubObjectName: 
