%YAML 1.1
%TAG !u! tag:unity3d.com,2011:
--- !u!114 &11400000
MonoBehaviour:
  m_ObjectHideFlags: 0
  m_CorrespondingSourceObject: {fileID: 0}
  m_PrefabInstance: {fileID: 0}
  m_PrefabAsset: {fileID: 0}
  m_GameObject: {fileID: 0}
  m_Enabled: 1
  m_EditorHideFlags: 0
  m_Script: {fileID: 11500000, guid: bbb281ee3bf0b054c82ac2347e9e782c, type: 3}
  m_Name: GameUnitData
  m_EditorClassIdentifier: 
  m_GroupName: GameUnitData
  m_Data:
    m_SerializedData: []
  m_GUID: aa46fdf8a58df6e40944346bf0ff6039
  m_SerializeEntries:
  - m_GUID: 3af264cb181293e4b9c0c73d6eaed77e
    m_Address: UnitSprite
    m_ReadOnly: 0
    m_SerializedLabels:
    - basic
    - spriteUnitData
    m_MainAsset: {fileID: 102900000, guid: 3af264cb181293e4b9c0c73d6eaed77e, type: 3}
    m_TargetAsset: {fileID: 102900000, guid: 3af264cb181293e4b9c0c73d6eaed77e, type: 3}
  - m_GUID: 7b4f74bdf371cbc41a7175fcfef8fa57
    m_Address: Character
    m_ReadOnly: 0
    m_SerializedLabels:
    - basic
    - characterUnitData
    m_MainAsset: {fileID: 102900000, guid: 7b4f74bdf371cbc41a7175fcfef8fa57, type: 3}
    m_TargetAsset: {fileID: 102900000, guid: 7b4f74bdf371cbc41a7175fcfef8fa57, type: 3}
  - m_GUID: d0ca4df04004eb640b7512945141ccd6
    m_Address: Monster
    m_ReadOnly: 0
    m_SerializedLabels:
    - basic
    - monsterUnitData
    m_MainAsset: {fileID: 102900000, guid: d0ca4df04004eb640b7512945141ccd6, type: 3}
    m_TargetAsset: {fileID: 102900000, guid: d0ca4df04004eb640b7512945141ccd6, type: 3}
  m_ReadOnly: 0
  m_Settings: {fileID: 11400000, guid: 76c8fef011f7f444eaac2ff9cdd92c65, type: 2}
  m_SchemaSet:
    m_Schemas:
    - {fileID: 11400000, guid: e7e57e4e3b913a54d902b1d0b65b3f9f, type: 2}
    - {fileID: 11400000, guid: 70d0fa5cf76d6494dbe57debac90a095, type: 2}
