%YAML 1.1
%TAG !u! tag:unity3d.com,2011:
--- !u!114 &11400000
MonoBehaviour:
  m_ObjectHideFlags: 0
  m_CorrespondingSourceObject: {fileID: 0}
  m_PrefabInstance: {fileID: 0}
  m_PrefabAsset: {fileID: 0}
  m_GameObject: {fileID: 0}
  m_Enabled: 1
  m_EditorHideFlags: 0
  m_Script: {fileID: 11500000, guid: bbb281ee3bf0b054c82ac2347e9e782c, type: 3}
  m_Name: GameCSVData
  m_EditorClassIdentifier: 
  m_GroupName: GameCSVData
  m_Data:
    m_SerializedData: []
  m_GUID: 0a91edd9ee180394e9efc15350d1e981
  m_SerializeEntries:
  - m_GUID: 988d88e07adc62e4da5f98b265cf77ba
    m_Address: Assets/AssetData/CSV
    m_ReadOnly: 0
    m_SerializedLabels:
    - basic
    - csvData
    m_MainAsset: {fileID: 0}
    m_TargetAsset: {fileID: 0}
  m_ReadOnly: 0
  m_Settings: {fileID: 11400000, guid: 76c8fef011f7f444eaac2ff9cdd92c65, type: 2}
  m_SchemaSet:
    m_Schemas:
    - {fileID: 11400000, guid: 677398a05a853544ea35c2d7ea5fb7ce, type: 2}
    - {fileID: 11400000, guid: 27d29d575a276c04da1aed78d95bc37c, type: 2}
