%YAML 1.1
%TAG !u! tag:unity3d.com,2011:
--- !u!114 &11400000
MonoBehaviour:
  m_ObjectHideFlags: 0
  m_CorrespondingSourceObject: {fileID: 0}
  m_PrefabInstance: {fileID: 0}
  m_PrefabAsset: {fileID: 0}
  m_GameObject: {fileID: 0}
  m_Enabled: 1
  m_EditorHideFlags: 0
  m_Script: {fileID: 11500000, guid: bbb281ee3bf0b054c82ac2347e9e782c, type: 3}
  m_Name: IllustrationData
  m_EditorClassIdentifier: 
  m_GroupName: IllustrationData
  m_Data:
    m_SerializedData: []
  m_GUID: 3dbb0d5ad49a12f44a1971dd1b685e56
  m_SerializeEntries:
  - m_GUID: 707845985c054ef4ab1e3ae2ebde63c5
    m_Address: Assets/AssetData/GameUnit/IllustrationData
    m_ReadOnly: 0
    m_SerializedLabels:
    - basic
    - IllustrationData
    m_MainAsset: {fileID: 102900000, guid: 707845985c054ef4ab1e3ae2ebde63c5, type: 3}
    m_TargetAsset: {fileID: 102900000, guid: 707845985c054ef4ab1e3ae2ebde63c5, type: 3}
  m_ReadOnly: 0
  m_Settings: {fileID: 11400000, guid: 76c8fef011f7f444eaac2ff9cdd92c65, type: 2}
  m_SchemaSet:
    m_Schemas:
    - {fileID: 11400000, guid: 4eaf1e1b8acf5f54ba5df62318278b54, type: 2}
    - {fileID: 11400000, guid: 66b4af567d89d6d4c95c540481513862, type: 2}
