%YAML 1.1
%TAG !u! tag:unity3d.com,2011:
--- !u!114 &11400000
MonoBehaviour:
  m_ObjectHideFlags: 0
  m_CorrespondingSourceObject: {fileID: 0}
  m_PrefabInstance: {fileID: 0}
  m_PrefabAsset: {fileID: 0}
  m_GameObject: {fileID: 0}
  m_Enabled: 1
  m_EditorHideFlags: 0
  m_Script: {fileID: 11500000, guid: bbb281ee3bf0b054c82ac2347e9e782c, type: 3}
  m_Name: LobbyShopPackages
  m_EditorClassIdentifier: 
  m_GroupName: LobbyShopPackages
  m_Data:
    m_SerializedData: []
  m_GUID: 70d3de36d27202145a7bccb1e4f8a66f
  m_SerializeEntries:
  - m_GUID: f853eff96f10c57478517be50531acc1
    m_Address: Assets/AssetData/ShopUI/Prefabs
    m_ReadOnly: 0
    m_SerializedLabels:
    - basic
    - lobbyShopPackage
    m_MainAsset: {fileID: 0}
    m_TargetAsset: {fileID: 0}
  m_ReadOnly: 0
  m_Settings: {fileID: 11400000, guid: 76c8fef011f7f444eaac2ff9cdd92c65, type: 2}
  m_SchemaSet:
    m_Schemas:
    - {fileID: 11400000, guid: 7170985f6ef008d4790d8b2351629ee8, type: 2}
    - {fileID: 11400000, guid: ad0999f26124c344bb55d52db6ca365a, type: 2}
