%YAML 1.1
%TAG !u! tag:unity3d.com,2011:
--- !u!114 &11400000
MonoBehaviour:
  m_ObjectHideFlags: 0
  m_CorrespondingSourceObject: {fileID: 0}
  m_PrefabInstance: {fileID: 0}
  m_PrefabAsset: {fileID: 0}
  m_GameObject: {fileID: 0}
  m_Enabled: 1
  m_EditorHideFlags: 0
  m_Script: {fileID: 11500000, guid: bbb281ee3bf0b054c82ac2347e9e782c, type: 3}
  m_Name: TutorialPrefab
  m_EditorClassIdentifier: 
  m_GroupName: TutorialPrefab
  m_Data:
    m_SerializedData: []
  m_GUID: fa4a93a473ea7b54aa724ea65ae1a27a
  m_SerializeEntries:
  - m_GUID: fc268d6b2fa6fb84fb8f06d92489ba69
    m_Address: Assets/AssetData/Tutorial
    m_ReadOnly: 0
    m_SerializedLabels:
    - basic
    m_MainAsset: {fileID: 0}
    m_TargetAsset: {fileID: 0}
  m_ReadOnly: 0
  m_Settings: {fileID: 11400000, guid: 76c8fef011f7f444eaac2ff9cdd92c65, type: 2}
  m_SchemaSet:
    m_Schemas:
    - {fileID: 11400000, guid: 77f2c9d4498cc014ba54cfc28ab84f41, type: 2}
    - {fileID: 11400000, guid: 718838ec18a8fbe43a19fce5be43a1b2, type: 2}
